tb/rtc_trace.vcd
$version Generated by VerilatedVcd $end
$timescale 1ps $end
 $scope module TOP $end
  $var wire 1 M clk_i $end
  $var wire 1 N rstn_i $end
  $var wire 1 O date_update_i $end
  $var wire 32 P date_i [31:0] $end
  $var wire 32 Q date_o [31:0] $end
  $var wire 1 R clock_update_i $end
  $var wire 22 S clock_o [21:0] $end
  $var wire 22 T clock_i [21:0] $end
  $var wire 10 U init_sec_cnt_i [9:0] $end
  $var wire 1 V calibre_update_i $end
  $var wire 16 W calibre_sec_cnt_i [15:0] $end
  $var wire 16 X calibre_sec_cnt_o [15:0] $end
  $var wire 1 Y timer_update_i $end
  $var wire 1 Z timer_enable_i $end
  $var wire 1 [ timer_retrig_i $end
  $var wire 17 \ timer_target_i [16:0] $end
  $var wire 17 ] timer_value_o [16:0] $end
  $var wire 1 ^ alarm_enable_i $end
  $var wire 6 _ alarm_mask_i [5:0] $end
  $var wire 1 ` alarm_update_clock_i $end
  $var wire 22 a alarm_clock_i [21:0] $end
  $var wire 22 b alarm_clock_o [21:0] $end
  $var wire 1 c alarm_update_date_i $end
  $var wire 32 d alarm_date_i [31:0] $end
  $var wire 32 e alarm_date_o [31:0] $end
  $var wire 1 f event_flag_update_i $end
  $var wire 2 g event_flag_i [1:0] $end
  $var wire 2 h event_flag_o [1:0] $end
  $var wire 1 i event_o $end
  $scope module rtc_top $end
   $var wire 1 M clk_i $end
   $var wire 1 N rstn_i $end
   $var wire 1 O date_update_i $end
   $var wire 32 P date_i [31:0] $end
   $var wire 32 Q date_o [31:0] $end
   $var wire 1 R clock_update_i $end
   $var wire 22 S clock_o [21:0] $end
   $var wire 22 T clock_i [21:0] $end
   $var wire 10 U init_sec_cnt_i [9:0] $end
   $var wire 1 V calibre_update_i $end
   $var wire 16 W calibre_sec_cnt_i [15:0] $end
   $var wire 16 X calibre_sec_cnt_o [15:0] $end
   $var wire 1 Y timer_update_i $end
   $var wire 1 Z timer_enable_i $end
   $var wire 1 [ timer_retrig_i $end
   $var wire 17 \ timer_target_i [16:0] $end
   $var wire 17 ] timer_value_o [16:0] $end
   $var wire 1 ^ alarm_enable_i $end
   $var wire 6 _ alarm_mask_i [5:0] $end
   $var wire 1 ` alarm_update_clock_i $end
   $var wire 22 a alarm_clock_i [21:0] $end
   $var wire 22 b alarm_clock_o [21:0] $end
   $var wire 1 c alarm_update_date_i $end
   $var wire 32 d alarm_date_i [31:0] $end
   $var wire 32 e alarm_date_o [31:0] $end
   $var wire 1 f event_flag_update_i $end
   $var wire 2 g event_flag_i [1:0] $end
   $var wire 2 h event_flag_o [1:0] $end
   $var wire 1 i event_o $end
   $var wire 1 # s_rtc_update_day $end
   $var wire 32 Q s_date [31:0] $end
   $scope module i_rtc_clock $end
    $var wire 1 M clk_i $end
    $var wire 1 N rstn_i $end
    $var wire 1 R clock_update_i $end
    $var wire 22 S clock_o [21:0] $end
    $var wire 22 T clock_i [21:0] $end
    $var wire 10 U init_sec_cnt_i [9:0] $end
    $var wire 1 V calibre_update_i $end
    $var wire 16 W calibre_sec_cnt_i [15:0] $end
    $var wire 16 X calibre_sec_cnt_o [15:0] $end
    $var wire 1 Y timer_update_i $end
    $var wire 1 Z timer_enable_i $end
    $var wire 1 [ timer_retrig_i $end
    $var wire 17 \ timer_target_i [16:0] $end
    $var wire 17 ] timer_value_o [16:0] $end
    $var wire 1 ^ alarm_enable_i $end
    $var wire 6 _ alarm_mask_i [5:0] $end
    $var wire 1 ` alarm_update_clock_i $end
    $var wire 22 a alarm_clock_i [21:0] $end
    $var wire 22 b alarm_clock_o [21:0] $end
    $var wire 1 c alarm_update_date_i $end
    $var wire 32 d alarm_date_i [31:0] $end
    $var wire 32 e alarm_date_o [31:0] $end
    $var wire 32 Q date_i [31:0] $end
    $var wire 1 f event_flag_update_i $end
    $var wire 2 g event_flag_i [1:0] $end
    $var wire 2 h event_flag_o [1:0] $end
    $var wire 1 i event_o $end
    $var wire 1 # update_day_o $end
    $var wire 8 $ r_seconds [7:0] $end
    $var wire 8 % r_minutes [7:0] $end
    $var wire 6 & r_hours [5:0] $end
    $var wire 8 j s_seconds [7:0] $end
    $var wire 8 k s_minutes [7:0] $end
    $var wire 6 l s_hours [5:0] $end
    $var wire 8 ' r_alarm_seconds [7:0] $end
    $var wire 8 ( r_alarm_minutes [7:0] $end
    $var wire 6 ) r_alarm_hours [5:0] $end
    $var wire 14 * r_alarm_year [13:0] $end
    $var wire 5 + r_alarm_month [4:0] $end
    $var wire 6 , r_alarm_day [5:0] $end
    $var wire 6 - r_alarm_mask [5:0] $end
    $var wire 1 . r_alarm_enable $end
    $var wire 8 m s_alarm_seconds [7:0] $end
    $var wire 8 n s_alarm_minutes [7:0] $end
    $var wire 6 o s_alarm_hours [5:0] $end
    $var wire 14 p s_alarm_year [13:0] $end
    $var wire 5 q s_alarm_month [4:0] $end
    $var wire 6 r s_alarm_day [5:0] $end
    $var wire 14 / s_year [13:0] $end
    $var wire 5 0 s_month [4:0] $end
    $var wire 6 1 s_day [5:0] $end
    $var wire 16 2 r_sec_counter [15:0] $end
    $var wire 16 3 r_sec_cnt_calibre [15:0] $end
    $var wire 1 4 s_update_seconds $end
    $var wire 1 5 s_update_minutes $end
    $var wire 1 6 s_update_hours $end
    $var wire 1 7 s_alarm_match $end
    $var wire 1 8 r_alarm_match $end
    $var wire 1 9 s_alarm_event $end
    $var wire 1 : s_timer_event $end
    $var wire 1 ; s_timer_match $end
    $var wire 1 < s_match_year $end
    $var wire 1 = s_match_month $end
    $var wire 1 > s_match_day $end
    $var wire 1 ? s_match_hours $end
    $var wire 1 @ s_match_minutes $end
    $var wire 1 A s_match_seconds $end
    $var wire 17 B r_timer [16:0] $end
    $var wire 17 C r_timer_target [16:0] $end
    $var wire 1 D r_timer_en $end
    $var wire 1 E r_timer_retrig $end
    $var wire 2 F r_event_flag [1:0] $end
   $upscope $end
   $scope module i_rtc_date $end
    $var wire 1 M clk_i $end
    $var wire 1 N rstn_i $end
    $var wire 1 O date_update_i $end
    $var wire 32 P date_i [31:0] $end
    $var wire 32 Q date_o [31:0] $end
    $var wire 1 # new_day_i $end
    $var wire 6 s s_day [5:0] $end
    $var wire 5 t s_month [4:0] $end
    $var wire 14 u s_year [13:0] $end
    $var wire 6 1 r_day [5:0] $end
    $var wire 5 0 r_month [4:0] $end
    $var wire 14 / r_year [13:0] $end
    $var wire 1 G s_end_of_month $end
    $var wire 1 H s_end_of_year $end
    $var wire 1 I s_year_century $end
    $var wire 1 J s_year_400 $end
    $var wire 1 K s_year_leap $end
    $var wire 1 L s_year_div_4 $end
   $upscope $end
  $upscope $end
 $upscope $end
$enddefinitions $end


#0
0#
b00000000 $
b00000000 %
b000000 &
b00000000 '
b00000000 (
b000000 )
b00000000000000 *
b00000 +
b000000 ,
b000000 -
0.
b00000000000000 /
b00000 0
b000000 1
b0000000000000000 2
b0000000000000000 3
14
05
06
17
08
09
0:
1;
1<
1=
1>
1?
1@
1A
b00000000000000000 B
b00000000000000000 C
0D
0E
b00 F
0G
0H
1I
1J
1K
1L
1M
0N
0O
b00000000000000000000000000000000 P
b00000000000000000000000000000000 Q
0R
b0000000000000000000000 S
b0000000000000000000000 T
b0000000000 U
0V
b0000000000000000 W
b0000000000000000 X
0Y
0Z
0[
b00000000000000000 \
b00000000000000000 ]
0^
b000000 _
0`
b0000000000000000000000 a
b0000000000000000000000 b
0c
b00000000000000000000000000000000 d
b00000000000000000000000000000000 e
0f
b00 g
b00 h
0i
b00000000 j
b00000000 k
b000000 l
b00000000 m
b00000000 n
b000000 o
b00000000000000 p
b00000 q
b000000 r
b000000 s
b00000 t
b00000000000000 u
#1
0M
#2
b10000000000000 /
b00001 0
b000001 1
b0111111111111111 3
04
07
0<
0=
0>
1M
b00100000000000000000000100000001 Q
b0111111111111111 X
#3
0M
#4
1M
1N
#5
0M
#6
b0000000000000001 2
0;
b00000000010010110 C
1D
1E
1M
1Y
1Z
1[
b00000000010010110 \
#7
0M
#8
b0000000000000010 2
1M
#9
0M
#10
b0000000000000011 2
b00000000000000001 B
1M
0Y
b00000000000000001 ]
#11
0M
#12
b01011001 '
b00100101 (
b000001 )
b10000000100100 *
b10010 +
b010101 ,
1.
b0000000000000100 2
0?
0@
0A
b00000000000000010 B
1M
b00000000000000010 ]
1^
1`
b0000010010010101011001 a
b0000010010010101011001 b
1c
b00100000001001000001001000010101 d
b00100000001001000001001000010101 e
b01011001 m
b00100101 n
b000001 o
b10000000100100 p
b10010 q
b010101 r
#13
0M
#14
b0000000000000101 2
b00000000000000011 B
1M
b00000000000000011 ]
0`
0c
#15
0M
#16
b0000000000000110 2
b0000000000001001 3
b00000000000000100 B
1M
1V
b0000000000001001 W
b0000000000001001 X
b00000000000000100 ]
#17
0M
#18
b0000000000000111 2
b00000000000000101 B
1M
0V
b00000000000000101 ]
#19
0M
#20
b01000101 $
b00100011 %
b000001 &
b0000000000000000 2
1?
b00000000000000110 B
1M
1R
b0000010010001101000101 S
b0000010010001101000101 T
b00000000000000110 ]
b01000101 j
b00100011 k
b000001 l
#21
0M
#22
b0000000000000001 2
b00000000000000111 B
1M
0R
b00000000000000111 ]
#23
0M
#24
b10000000100100 /
b10010 0
b010101 1
b0000000000000010 2
1<
1=
1>
b00000000000001000 B
0I
1M
1O
b00100000001001000001001000010101 P
b00100000001001000001001000010101 Q
b00000000000001000 ]
b010101 s
b10010 t
b10000000100100 u
#25
0M
#26
b0000000000000011 2
b00000000000001001 B
1M
b00000000000001001 ]
#27
0M
0O
#28
b0000000000000100 2
b00000000000001010 B
1M
b00000000000001010 ]
#29
0M
#30
b0000000000000101 2
b00000000000001011 B
1M
b00000000000001011 ]
#31
0M
#32
b0000000000000110 2
b00000000000001100 B
1M
b00000000000001100 ]
#33
0M
#34
b0000000000000111 2
b00000000000001101 B
1M
b00000000000001101 ]
#35
0M
#36
b0000000000001000 2
b00000000000001110 B
1M
b00000000000001110 ]
#37
0M
#38
b0000000000001001 2
14
b00000000000001111 B
1M
b00000000000001111 ]
#39
0M
#40
b01000110 $
b0000000000000000 2
04
b00000000000010000 B
1M
b0000010010001101000110 S
b00000000000010000 ]
#41
0M
#42
b0000000000000001 2
b00000000000010001 B
1M
b00000000000010001 ]
#43
0M
#44
b0000000000000010 2
b00000000000010010 B
1M
b00000000000010010 ]
#45
0M
#46
b0000000000000011 2
b00000000000010011 B
1M
b00000000000010011 ]
#47
0M
#48
b0000000000000100 2
b00000000000010100 B
1M
b00000000000010100 ]
#49
0M
#50
b0000000000000101 2
b00000000000010101 B
1M
b00000000000010101 ]
#51
0M
#52
b0000000000000110 2
b00000000000010110 B
1M
b00000000000010110 ]
#53
0M
#54
b0000000000000111 2
b00000000000010111 B
1M
b00000000000010111 ]
#55
0M
#56
b0000000000001000 2
b00000000000011000 B
1M
b00000000000011000 ]
#57
0M
#58
b0000000000001001 2
14
b00000000000011001 B
1M
b00000000000011001 ]
#59
0M
#60
b01000111 $
b0000000000000000 2
04
b00000000000011010 B
1M
b0000010010001101000111 S
b00000000000011010 ]
#61
0M
#62
b0000000000000001 2
b00000000000011011 B
1M
b00000000000011011 ]
#63
0M
#64
b0000000000000010 2
b00000000000011100 B
1M
b00000000000011100 ]
#65
0M
#66
b0000000000000011 2
b00000000000011101 B
1M
b00000000000011101 ]
#67
0M
#68
b0000000000000100 2
b00000000000011110 B
1M
b00000000000011110 ]
#69
0M
#70
b0000000000000101 2
b00000000000011111 B
1M
b00000000000011111 ]
#71
0M
#72
b0000000000000110 2
b00000000000100000 B
1M
b00000000000100000 ]
#73
0M
#74
b0000000000000111 2
b00000000000100001 B
1M
b00000000000100001 ]
#75
0M
#76
b0000000000001000 2
b00000000000100010 B
1M
b00000000000100010 ]
#77
0M
#78
b0000000000001001 2
14
b00000000000100011 B
1M
b00000000000100011 ]
#79
0M
#80
b01001000 $
b0000000000000000 2
04
b00000000000100100 B
1M
b0000010010001101001000 S
b00000000000100100 ]
#81
0M
#82
b0000000000000001 2
b00000000000100101 B
1M
b00000000000100101 ]
#83
0M
#84
b0000000000000010 2
b00000000000100110 B
1M
b00000000000100110 ]
#85
0M
#86
b0000000000000011 2
b00000000000100111 B
1M
b00000000000100111 ]
#87
0M
#88
b0000000000000100 2
b00000000000101000 B
1M
b00000000000101000 ]
#89
0M
#90
b0000000000000101 2
b00000000000101001 B
1M
b00000000000101001 ]
#91
0M
#92
b0000000000000110 2
b00000000000101010 B
1M
b00000000000101010 ]
#93
0M
#94
b0000000000000111 2
b00000000000101011 B
1M
b00000000000101011 ]
#95
0M
#96
b0000000000001000 2
b00000000000101100 B
1M
b00000000000101100 ]
#97
0M
#98
b0000000000001001 2
14
b00000000000101101 B
1M
b00000000000101101 ]
#99
0M
#100
b01001001 $
b0000000000000000 2
04
b00000000000101110 B
1M
b0000010010001101001001 S
b00000000000101110 ]
#101
0M
#102
b0000000000000001 2
b00000000000101111 B
1M
b00000000000101111 ]
#103
0M
#104
b0000000000000010 2
b00000000000110000 B
1M
b00000000000110000 ]
#105
0M
#106
b0000000000000011 2
b00000000000110001 B
1M
b00000000000110001 ]
#107
0M
#108
b0000000000000100 2
b00000000000110010 B
1M
b00000000000110010 ]
#109
0M
#110
b0000000000000101 2
b00000000000110011 B
1M
b00000000000110011 ]
#111
0M
#112
b0000000000000110 2
b00000000000110100 B
1M
b00000000000110100 ]
#113
0M
#114
b0000000000000111 2
b00000000000110101 B
1M
b00000000000110101 ]
#115
0M
#116
b0000000000001000 2
b00000000000110110 B
1M
b00000000000110110 ]
#117
0M
#118
b0000000000001001 2
14
b00000000000110111 B
1M
b00000000000110111 ]
#119
0M
#120
b01010000 $
b0000000000000000 2
04
b00000000000111000 B
1M
b0000010010001101010000 S
b00000000000111000 ]
#121
0M
#122
b0000000000000001 2
b00000000000111001 B
1M
b00000000000111001 ]
#123
0M
#124
b0000000000000010 2
b00000000000111010 B
1M
b00000000000111010 ]
#125
0M
#126
b0000000000000011 2
b00000000000111011 B
1M
b00000000000111011 ]
#127
0M
#128
b0000000000000100 2
b00000000000111100 B
1M
b00000000000111100 ]
#129
0M
#130
b0000000000000101 2
b00000000000111101 B
1M
b00000000000111101 ]
#131
0M
#132
b0000000000000110 2
b00000000000111110 B
1M
b00000000000111110 ]
#133
0M
#134
b0000000000000111 2
b00000000000111111 B
1M
b00000000000111111 ]
#135
0M
#136
b0000000000001000 2
b00000000001000000 B
1M
b00000000001000000 ]
#137
0M
#138
b0000000000001001 2
14
b00000000001000001 B
1M
b00000000001000001 ]
#139
0M
#140
b01010001 $
b0000000000000000 2
04
b00000000001000010 B
1M
b0000010010001101010001 S
b00000000001000010 ]
#141
0M
#142
b0000000000000001 2
b00000000001000011 B
1M
b00000000001000011 ]
#143
0M
#144
b0000000000000010 2
b00000000001000100 B
1M
b00000000001000100 ]
#145
0M
#146
b0000000000000011 2
b00000000001000101 B
1M
b00000000001000101 ]
#147
0M
#148
b0000000000000100 2
b00000000001000110 B
1M
b00000000001000110 ]
#149
0M
#150
b0000000000000101 2
b00000000001000111 B
1M
b00000000001000111 ]
#151
0M
#152
b0000000000000110 2
b00000000001001000 B
1M
b00000000001001000 ]
#153
0M
#154
b0000000000000111 2
b00000000001001001 B
1M
b00000000001001001 ]
#155
0M
#156
b0000000000001000 2
b00000000001001010 B
1M
b00000000001001010 ]
#157
0M
#158
b0000000000001001 2
14
b00000000001001011 B
1M
b00000000001001011 ]
#159
0M
#160
b01010010 $
b0000000000000000 2
04
b00000000001001100 B
1M
b0000010010001101010010 S
b00000000001001100 ]
#161
0M
#162
b0000000000000001 2
b00000000001001101 B
1M
b00000000001001101 ]
#163
0M
#164
b0000000000000010 2
b00000000001001110 B
1M
b00000000001001110 ]
#165
0M
#166
b0000000000000011 2
b00000000001001111 B
1M
b00000000001001111 ]
#167
0M
#168
b0000000000000100 2
b00000000001010000 B
1M
b00000000001010000 ]
#169
0M
#170
b0000000000000101 2
b00000000001010001 B
1M
b00000000001010001 ]
#171
0M
#172
b0000000000000110 2
b00000000001010010 B
1M
b00000000001010010 ]
#173
0M
#174
b0000000000000111 2
b00000000001010011 B
1M
b00000000001010011 ]
#175
0M
#176
b0000000000001000 2
b00000000001010100 B
1M
b00000000001010100 ]
#177
0M
#178
b0000000000001001 2
14
b00000000001010101 B
1M
b00000000001010101 ]
#179
0M
#180
b01010011 $
b0000000000000000 2
04
b00000000001010110 B
1M
b0000010010001101010011 S
b00000000001010110 ]
#181
0M
#182
b0000000000000001 2
b00000000001010111 B
1M
b00000000001010111 ]
#183
0M
#184
b0000000000000010 2
b00000000001011000 B
1M
b00000000001011000 ]
#185
0M
#186
b0000000000000011 2
b00000000001011001 B
1M
b00000000001011001 ]
#187
0M
#188
b0000000000000100 2
b00000000001011010 B
1M
b00000000001011010 ]
#189
0M
#190
b0000000000000101 2
b00000000001011011 B
1M
b00000000001011011 ]
#191
0M
#192
b0000000000000110 2
b00000000001011100 B
1M
b00000000001011100 ]
#193
0M
#194
b0000000000000111 2
b00000000001011101 B
1M
b00000000001011101 ]
#195
0M
#196
b0000000000001000 2
b00000000001011110 B
1M
b00000000001011110 ]
#197
0M
#198
b0000000000001001 2
14
b00000000001011111 B
1M
b00000000001011111 ]
#199
0M
#200
b01010100 $
b0000000000000000 2
04
b00000000001100000 B
1M
b0000010010001101010100 S
b00000000001100000 ]
#201
0M
#202
b0000000000000001 2
b00000000001100001 B
1M
b00000000001100001 ]
#203
0M
#204
b0000000000000010 2
b00000000001100010 B
1M
b00000000001100010 ]
#205
0M
#206
b0000000000000011 2
b00000000001100011 B
1M
b00000000001100011 ]
#207
0M
#208
b0000000000000100 2
b00000000001100100 B
1M
b00000000001100100 ]
#209
0M
#210
b0000000000000101 2
b00000000001100101 B
1M
b00000000001100101 ]
#211
0M
#212
b0000000000000110 2
b00000000001100110 B
1M
b00000000001100110 ]
#213
0M
#214
b0000000000000111 2
b00000000001100111 B
1M
b00000000001100111 ]
#215
0M
#216
b0000000000001000 2
b00000000001101000 B
1M
b00000000001101000 ]
#217
0M
#218
b0000000000001001 2
14
b00000000001101001 B
1M
b00000000001101001 ]
#219
0M
#220
b01010101 $
b0000000000000000 2
04
b00000000001101010 B
1M
b0000010010001101010101 S
b00000000001101010 ]
#221
0M
#222
b0000000000000001 2
b00000000001101011 B
1M
b00000000001101011 ]
#223
0M
#224
b0000000000000010 2
b00000000001101100 B
1M
b00000000001101100 ]
#225
0M
#226
b0000000000000011 2
b00000000001101101 B
1M
b00000000001101101 ]
#227
0M
#228
b0000000000000100 2
b00000000001101110 B
1M
b00000000001101110 ]
#229
0M
#230
b0000000000000101 2
b00000000001101111 B
1M
b00000000001101111 ]
#231
0M
#232
b0000000000000110 2
b00000000001110000 B
1M
b00000000001110000 ]
#233
0M
#234
b0000000000000111 2
b00000000001110001 B
1M
b00000000001110001 ]
#235
0M
#236
b0000000000001000 2
b00000000001110010 B
1M
b00000000001110010 ]
#237
0M
#238
b0000000000001001 2
14
b00000000001110011 B
1M
b00000000001110011 ]
#239
0M
#240
b01010110 $
b0000000000000000 2
04
b00000000001110100 B
1M
b0000010010001101010110 S
b00000000001110100 ]
#241
0M
#242
b0000000000000001 2
b00000000001110101 B
1M
b00000000001110101 ]
#243
0M
#244
b0000000000000010 2
b00000000001110110 B
1M
b00000000001110110 ]
#245
0M
#246
b0000000000000011 2
b00000000001110111 B
1M
b00000000001110111 ]
#247
0M
#248
b0000000000000100 2
b00000000001111000 B
1M
b00000000001111000 ]
#249
0M
#250
b0000000000000101 2
b00000000001111001 B
1M
b00000000001111001 ]
#251
0M
#252
b0000000000000110 2
b00000000001111010 B
1M
b00000000001111010 ]
#253
0M
#254
b0000000000000111 2
b00000000001111011 B
1M
b00000000001111011 ]
#255
0M
#256
b0000000000001000 2
b00000000001111100 B
1M
b00000000001111100 ]
#257
0M
#258
b0000000000001001 2
14
b00000000001111101 B
1M
b00000000001111101 ]
#259
0M
#260
b01010111 $
b0000000000000000 2
04
b00000000001111110 B
1M
b0000010010001101010111 S
b00000000001111110 ]
#261
0M
#262
b0000000000000001 2
b00000000001111111 B
1M
b00000000001111111 ]
#263
0M
#264
b0000000000000010 2
b00000000010000000 B
1M
b00000000010000000 ]
#265
0M
#266
b0000000000000011 2
b00000000010000001 B
1M
b00000000010000001 ]
#267
0M
#268
b0000000000000100 2
b00000000010000010 B
1M
b00000000010000010 ]
#269
0M
#270
b0000000000000101 2
b00000000010000011 B
1M
b00000000010000011 ]
#271
0M
#272
b0000000000000110 2
b00000000010000100 B
1M
b00000000010000100 ]
#273
0M
#274
b0000000000000111 2
b00000000010000101 B
1M
b00000000010000101 ]
#275
0M
#276
b0000000000001000 2
b00000000010000110 B
1M
b00000000010000110 ]
#277
0M
#278
b0000000000001001 2
14
b00000000010000111 B
1M
b00000000010000111 ]
#279
0M
#280
b01011000 $
b0000000000000000 2
04
b00000000010001000 B
1M
b0000010010001101011000 S
b00000000010001000 ]
#281
0M
#282
b0000000000000001 2
b00000000010001001 B
1M
b00000000010001001 ]
#283
0M
#284
b0000000000000010 2
b00000000010001010 B
1M
b00000000010001010 ]
#285
0M
#286
b0000000000000011 2
b00000000010001011 B
1M
b00000000010001011 ]
#287
0M
#288
b0000000000000100 2
b00000000010001100 B
1M
b00000000010001100 ]
#289
0M
#290
b0000000000000101 2
b00000000010001101 B
1M
b00000000010001101 ]
#291
0M
#292
b0000000000000110 2
b00000000010001110 B
1M
b00000000010001110 ]
#293
0M
#294
b0000000000000111 2
b00000000010001111 B
1M
b00000000010001111 ]
#295
0M
#296
b0000000000001000 2
b00000000010010000 B
1M
b00000000010010000 ]
#297
0M
#298
b0000000000001001 2
14
b00000000010010001 B
1M
b00000000010010001 ]
#299
0M
#300
b01011001 $
b0000000000000000 2
04
1A
b00000000010010010 B
1M
b0000010010001101011001 S
b00000000010010010 ]
#301
0M
#302
b0000000000000001 2
b00000000010010011 B
1M
b00000000010010011 ]
#303
0M
#304
b0000000000000010 2
b00000000010010100 B
1M
b00000000010010100 ]
#305
0M
#306
b0000000000000011 2
b00000000010010101 B
1M
b00000000010010101 ]
#307
0M
#308
b0000000000000100 2
1:
1;
b00000000010010110 B
1M
b00000000010010110 ]
1i
#309
0M
#310
b0000000000000101 2
0:
0;
b00000000000000000 B
b10 F
1M
b00000000000000000 ]
b10 h
0i
#311
0M
#312
b0000000000000110 2
b00000000000000001 B
1M
b00000000000000001 ]
#313
0M
#314
b0000000000000111 2
b00000000000000010 B
1M
b00000000000000010 ]
#315
0M
#316
b0000000000001000 2
b00000000000000011 B
1M
b00000000000000011 ]
#317
0M
#318
b0000000000001001 2
14
15
b00000000000000100 B
1M
b00000000000000100 ]
#319
0M
#320
b00000000 $
b00100100 %
b0000000000000000 2
04
05
0A
b00000000000000101 B
1M
b0000010010010000000000 S
b00000000000000101 ]
#321
0M
#322
b0000000000000001 2
b00000000000000110 B
1M
b00000000000000110 ]
#323
0M
#324
b0000000000000010 2
b00000000000000111 B
1M
b00000000000000111 ]
#325
0M
#326
b0000000000000011 2
b00000000000001000 B
1M
b00000000000001000 ]
#327
0M
#328
b0000000000000100 2
b00000000000001001 B
1M
b00000000000001001 ]
#329
0M
#330
b0000000000000101 2
b00000000000001010 B
1M
b00000000000001010 ]
#331
0M
#332
b0000000000000110 2
b00000000000001011 B
1M
b00000000000001011 ]
#333
0M
#334
b0000000000000111 2
b00000000000001100 B
1M
b00000000000001100 ]
#335
0M
#336
b0000000000001000 2
b00000000000001101 B
1M
b00000000000001101 ]
#337
0M
#338
b0000000000001001 2
14
b00000000000001110 B
1M
b00000000000001110 ]
#339
0M
#340
b00000001 $
b0000000000000000 2
04
b00000000000001111 B
1M
b0000010010010000000001 S
b00000000000001111 ]
#341
0M
#342
b0000000000000001 2
b00000000000010000 B
1M
b00000000000010000 ]
#343
0M
#344
b0000000000000010 2
b00000000000010001 B
1M
b00000000000010001 ]
#345
0M
#346
b0000000000000011 2
b00000000000010010 B
1M
b00000000000010010 ]
#347
0M
#348
b0000000000000100 2
b00000000000010011 B
1M
b00000000000010011 ]
#349
0M
#350
b0000000000000101 2
b00000000000010100 B
1M
b00000000000010100 ]
#351
0M
#352
b0000000000000110 2
b00000000000010101 B
1M
b00000000000010101 ]
#353
0M
#354
b0000000000000111 2
b00000000000010110 B
1M
b00000000000010110 ]
#355
0M
#356
b0000000000001000 2
b00000000000010111 B
1M
b00000000000010111 ]
#357
0M
#358
b0000000000001001 2
14
b00000000000011000 B
1M
b00000000000011000 ]
#359
0M
#360
b00000010 $
b0000000000000000 2
04
b00000000000011001 B
1M
b0000010010010000000010 S
b00000000000011001 ]
#361
0M
#362
b0000000000000001 2
b00000000000011010 B
1M
b00000000000011010 ]
#363
0M
#364
b0000000000000010 2
b00000000000011011 B
1M
b00000000000011011 ]
#365
0M
#366
b0000000000000011 2
b00000000000011100 B
1M
b00000000000011100 ]
#367
0M
#368
b0000000000000100 2
b00000000000011101 B
1M
b00000000000011101 ]
#369
0M
#370
b0000000000000101 2
b00000000000011110 B
1M
b00000000000011110 ]
#371
0M
#372
b0000000000000110 2
b00000000000011111 B
1M
b00000000000011111 ]
#373
0M
#374
b0000000000000111 2
b00000000000100000 B
1M
b00000000000100000 ]
#375
0M
#376
b0000000000001000 2
b00000000000100001 B
1M
b00000000000100001 ]
#377
0M
#378
b0000000000001001 2
14
b00000000000100010 B
1M
b00000000000100010 ]
#379
0M
#380
b00000011 $
b0000000000000000 2
04
b00000000000100011 B
1M
b0000010010010000000011 S
b00000000000100011 ]
#381
0M
#382
b0000000000000001 2
b00000000000100100 B
1M
b00000000000100100 ]
#383
0M
#384
b0000000000000010 2
b00000000000100101 B
1M
b00000000000100101 ]
#385
0M
#386
b0000000000000011 2
b00000000000100110 B
1M
b00000000000100110 ]
#387
0M
#388
b0000000000000100 2
b00000000000100111 B
1M
b00000000000100111 ]
#389
0M
#390
b0000000000000101 2
b00000000000101000 B
1M
b00000000000101000 ]
#391
0M
#392
b0000000000000110 2
b00000000000101001 B
1M
b00000000000101001 ]
#393
0M
#394
b0000000000000111 2
b00000000000101010 B
1M
b00000000000101010 ]
#395
0M
#396
b0000000000001000 2
b00000000000101011 B
1M
b00000000000101011 ]
#397
0M
#398
b0000000000001001 2
14
b00000000000101100 B
1M
b00000000000101100 ]
#399
0M
#400
b00000100 $
b0000000000000000 2
04
b00000000000101101 B
1M
b0000010010010000000100 S
b00000000000101101 ]
#401
0M
#402
b0000000000000001 2
b00000000000101110 B
1M
b00000000000101110 ]
#403
0M
#404
b0000000000000010 2
b00000000000101111 B
1M
b00000000000101111 ]
#405
0M
#406
b0000000000000011 2
b00000000000110000 B
1M
b00000000000110000 ]
#407
0M
#408
b0000000000000100 2
b00000000000110001 B
1M
b00000000000110001 ]
#409
0M
#410
b0000000000000101 2
b00000000000110010 B
1M
b00000000000110010 ]
#411
0M
#412
b0000000000000110 2
b00000000000110011 B
1M
b00000000000110011 ]
#413
0M
#414
b0000000000000111 2
b00000000000110100 B
1M
b00000000000110100 ]
#415
0M
#416
b0000000000001000 2
b00000000000110101 B
1M
b00000000000110101 ]
#417
0M
#418
b0000000000001001 2
14
b00000000000110110 B
1M
b00000000000110110 ]
#419
0M
#420
b00000101 $
b0000000000000000 2
04
b00000000000110111 B
1M
b0000010010010000000101 S
b00000000000110111 ]
#421
0M
#422
b0000000000000001 2
b00000000000111000 B
1M
b00000000000111000 ]
#423
0M
#424
b0000000000000010 2
b00000000000111001 B
1M
b00000000000111001 ]
#425
0M
#426
b0000000000000011 2
b00000000000111010 B
1M
b00000000000111010 ]
#427
0M
#428
b0000000000000100 2
b00000000000111011 B
1M
b00000000000111011 ]
#429
0M
#430
b0000000000000101 2
b00000000000111100 B
1M
b00000000000111100 ]
#431
0M
#432
b0000000000000110 2
b00000000000111101 B
1M
b00000000000111101 ]
#433
0M
#434
b0000000000000111 2
b00000000000111110 B
1M
b00000000000111110 ]
#435
0M
#436
b0000000000001000 2
b00000000000111111 B
1M
b00000000000111111 ]
#437
0M
#438
b0000000000001001 2
14
b00000000001000000 B
1M
b00000000001000000 ]
#439
0M
#440
b00000110 $
b0000000000000000 2
04
b00000000001000001 B
1M
b0000010010010000000110 S
b00000000001000001 ]
#441
0M
#442
b0000000000000001 2
b00000000001000010 B
1M
b00000000001000010 ]
#443
0M
#444
b0000000000000010 2
b00000000001000011 B
1M
b00000000001000011 ]
#445
0M
#446
b0000000000000011 2
b00000000001000100 B
1M
b00000000001000100 ]
#447
0M
#448
b0000000000000100 2
b00000000001000101 B
1M
b00000000001000101 ]
#449
0M
#450
b0000000000000101 2
b00000000001000110 B
1M
b00000000001000110 ]
#451
0M
#452
b0000000000000110 2
b00000000001000111 B
1M
b00000000001000111 ]
#453
0M
#454
b0000000000000111 2
b00000000001001000 B
1M
b00000000001001000 ]
#455
0M
#456
b0000000000001000 2
b00000000001001001 B
1M
b00000000001001001 ]
#457
0M
#458
b0000000000001001 2
14
b00000000001001010 B
1M
b00000000001001010 ]
#459
0M
#460
b00000111 $
b0000000000000000 2
04
b00000000001001011 B
1M
b0000010010010000000111 S
b00000000001001011 ]
#461
0M
#462
b0000000000000001 2
b00000000001001100 B
1M
b00000000001001100 ]
#463
0M
#464
b0000000000000010 2
b00000000001001101 B
1M
b00000000001001101 ]
#465
0M
#466
b0000000000000011 2
b00000000001001110 B
1M
b00000000001001110 ]
#467
0M
#468
b0000000000000100 2
b00000000001001111 B
1M
b00000000001001111 ]
#469
0M
#470
b0000000000000101 2
b00000000001010000 B
1M
b00000000001010000 ]
#471
0M
#472
b0000000000000110 2
b00000000001010001 B
1M
b00000000001010001 ]
#473
0M
#474
b0000000000000111 2
b00000000001010010 B
1M
b00000000001010010 ]
#475
0M
